<?xml version="1.0" standalone="no"?>
<!DOCTYPE svg PUBLIC "-//W3C//DTD SVG 20010904//EN"
 "http://www.w3.org/TR/2001/REC-SVG-20010904/DTD/svg10.dtd">
<svg version="1.0" xmlns="http://www.w3.org/2000/svg"
 width="354.000000pt" height="354.000000pt" viewBox="0 0 354.000000 354.000000"
 preserveAspectRatio="xMidYMid meet">
<metadata>
Created by potrace 1.11, written by Peter Selinger 2001-2013
</metadata>
<g transform="translate(0.000000,354.000000) scale(0.100000,-0.100000)"
fill="#000000" stroke="none">
<path d="M1619 3506 c-2 -2 -32 -7 -67 -10 -55 -6 -103 -14 -177 -30 -300 -64
-583 -215 -843 -451 -55 -49 -171 -189 -235 -282 -120 -176 -233 -445 -262
-623 -3 -19 -11 -60 -17 -90 -13 -58 -17 -397 -6 -465 4 -22 10 -60 13 -85 32
-212 136 -469 270 -670 58 -86 215 -272 261 -310 11 -8 47 -38 80 -66 74 -62
204 -148 297 -197 140 -75 360 -152 493 -173 21 -3 42 -8 45 -10 28 -17 381
-25 509 -12 384 40 775 229 1050 508 95 97 112 117 186 220 93 131 127 191
182 322 38 89 77 201 87 246 3 12 7 32 10 44 6 23 18 89 30 158 11 60 14 362
5 425 -5 33 -12 82 -15 109 -8 59 -56 231 -89 317 -171 450 -532 817 -976 994
-52 20 -104 41 -115 45 -11 5 -56 17 -100 28 -72 19 -118 28 -225 48 -38 6
-385 16 -391 10z"/>
</g>
</svg>
