{
    "version": "https://jsonfeed.org/version/1",
    "title": "hh",
    "description": "",
    "home_page_url": "https://davidhbc310.gitlab.io/sitev2",
    "feed_url": "https://davidhbc310.gitlab.io/sitev2/feed.json",
    "user_comment": "",
    "author": {
        "name": "hh"
    },
    "items": [
    ]
}
