[
    {
        "key-words": ["AGL FOUGERES","AGL HB FOUGERES","AGL HANDBALL FOUGERES"],
        "logo":"/uploads/images/logos/agl-hb-fougeres.webp"
    },
    {
        "key-words": ["AL CANCALE"],
        "logo":"/uploads/images/logos/al-cancale.webp"
    },
    {
        "key-words": ["CMG SUR ILLE","RGP CMG/GEVEZE","CMG SUR ILLE HANDBALL","CGM S/ILLE HB","CMG SUR ILLE HB","CMG","CMG S/ILLE HB","CMG S/ ILLE HANDBALL"],
        "logo":"/uploads/images/logos/cmg-sur-ille.webp",
        "name":"CMG SUR ILLE"
    },
    {
        "key-words": ["HBC CHATEAUBOURG"],
        "logo":"/uploads/images/logos/hbc-chateaubourg.webp",
        "name":"CHATEAUBOURG"
    },
    {
        "key-words": ["U15M ENT RENNES MH-CHATEAUBOURG-CHATEAUGIRON","RENNES MH-CHATEAUBOURG-CHATEAUGIRON","RENNES MH & CHATEAUBOURG","RENNES MH - CHATEAUBOURG", "RGPT HBC CHATEAUBOURG-RENNES MHB","RGPT CHATEAUBOURG RENNES MHB"],
        "logo":"/uploads/images/logos/hbc-chateaubourg.webp",
        "name":"RMH CHATEAUBOURG"
    },
    {
        "key-words": ["RENNES M","RENNES METROPOLE HB","RENNES MHB", "RENNES MH-CHTBOURG-CHTGIRON"],
        "logo":"/uploads/images/logos/rmh.webp",
        "name":"RENNES METROPOLE HB"
    },
    {
        "key-words": ["MONTAUBAN BROONS","RGPT BROONS SC MEVENNAIS HB","PAYS DE BROONS","MEVENNAIS BROONS"],
        "logo":"/uploads/images/logos/broons.webp"
    },
    {
        "key-words": ["HB DETENTE","HAND-BALL DÉTENTE","HB DETENTE "],
        "logo":"/uploads/images/logos/hb-detente.webp",
        "name":"HB DETENTE"
    },
    {
        "key-words": ["HB JANZE","HANDBALL JANZE","JANZE"],
        "logo":"/uploads/images/logos/hb-janze.webp",
        "name":"HB JANZE"
    },
    {
        "key-words": ["JA BRUZ HB","JEANNE D'ARC BRUZ","JEANNE D ARC BRUZ","JA BRUZ","JA BRUZ HANDBALL","BRUZ"],
        "logo":"/uploads/images/logos/ja-bruz.webp",
        "name":"JA BRUZ"
    },
    {
        "key-words": ["TINTENIAC / COMBOURG HANDBALL CLUB","TINTENIAC / COMBOURG","TINTENIAC / COMBOURG HBC"],
        "logo":"/uploads/images/logos/tinteniac.webp",
        "name": "TINTENIAC / COMBOURG"
    },
    {
        "key-words": ["US LIFFRÉ HANDBALL","US LIFFRE","US LIFFRE HB"],
        "logo":"/uploads/images/logos/liffre.webp",
        "name": "US LIFFRÉ"
    },
    {
        "key-words": ["ENT CPB RENNES / AS CHANTEPIE","ENT CPB /CHANTEPIE","CPB RENNES - AS CHANTEPIE"],
        "logo":"/uploads/images/logos/cpb.webp"
    },
    {
        "key-words": ["CPB RENNES","CERCLE PAUL BERT RENNES","CERCLE PÄUL BERT RENNES","CPB RENNES HB","CPB","CERCLE PAUL BERT RENNES HB"],
        "logo":"/uploads/images/logos/cpb.webp",
        "name": "CPB RENNES"
    },
    {
        "key-words": ["AS CHANTEPIE HB","AS CHANTEPIE","AS CHANTEPIE HANDBALL"],
        "logo":"/uploads/images/logos/chantepie.webp"
    },
    {
        "key-words": ["US DE BAIN","US BAIN HB","US BAIN","US BAIN DE BRETAGNE","ENTENTE RENNES SUD HANDBALL","ENT RENNES SUD HB","US BAIN DE BRETAGNE HANDBALL"],
        "logo":"/uploads/images/logos/union-sportive-de-bain.webp"
    },
    {
        "key-words": ["THORIGNE FOUILLARD HANDBALL CLUB","THORIGNE FOUILLARD HBC"],
        "logo":"/uploads/images/logos/thorigne-fouillard.webp",
        "name": "THORIGNE FOUILLARD"
    },
    {
        "key-words": ["GUICHEN HB","HB GUICHEN","GUICHEN"],
        "logo":"/uploads/images/logos/guichen.webp"
    },
    {
        "key-words": ["CADETS DE BRETAGNE RENNES","CADETS DE BRETAGNE"],
        "logo":"/uploads/images/logos/cadets-de-bretagne-rennes.webp",
        "name": "CADETS DE BRETAGNE"
    },
    {
        "key-words": ["ASC MAURE","ASC MAURE HB","ASC MAURE HB","ASC MAURE DE BRETAGNE HANDBALL","MAURE HB","ASC MAURE DE BRETAGNE HB","ASC MAURE HB ","ASC MAURE  HB","ASC MAURE  HANDBALL","ASC MAURE HANDBALL"],
        "logo":"/uploads/images/logos/asc-maure-de-bretagne-handball.webp",
        "name": "MAURE HB"
    },
    {
        "key-words": ["ENT RMH CHATEAUBOURG"],
        "logo":"/uploads/images/logos/hbc-chateaubourg.webp",
        "name": "RMH CHATEAUBOURG"
    },
    {
        "key-words": ["COBSE HB"],
        "logo":"/uploads/images/logos/cobse.webp"
    },
    {
        "key-words": ["PLOERMEL HBC"],
        "logo":"/uploads/images/logos/ploermel.webp"
    },
    {
        "key-words": ["ASCR","ASC RENNAIS"],
        "logo":"/uploads/images/logos/ascr.webp"
    },
    {
        "key-words": ["OC MONTAUBAN","O.C.MONTAUBAN","MONTAUBAN"],
        "logo":"/uploads/images/logos/ocm.webp",
        "name":"OC MONTAUBAN"
    },
    {
        "key-words": ["MENE HANDBALL CLUB","MENE MERDRIGNAC HANDBALL","MENE MERDRIGNAC HB"],
        "logo":"/uploads/images/logos/mene-handball.webp",
        "name":"MENE HANDBALL CLUB"
    },
    {
        "key-words": ["EMERAUDE 1 DOL","DOL"],
        "logo":"/uploads/images/logos/dol.webp"
    },
    {
        "key-words": ["HANDBALL CLUB DOL DE BRETAGNE","HBC DOL","HBC DOL DE BRETAGNE"],
        "logo":"/uploads/images/logos/dol.webp",
        "name":"HBC DOL"
    },
    {
        "key-words": ["ELAN SPORTIF REDON HB","ELAN SPORTIF REDON","ES REDON","ES REDON HB", "ELAN SPORTIF REDON HANDBALL"],
        "logo":"/uploads/images/logos/redon.webp",
        "name":"ES REDON"
    },
    {
        "key-words": ["LA VITREENNE", "LA VITREENNE HANDBALL","LA VITREENNNE HB","LA VITRÉENNE HANDBALL","LA VITREENNE HB", "LA VITREENNE RETIERS HANDBALL"],
        "logo":"/uploads/images/logos/vitre.webp",
        "name":"LA VITREENNE"
    },
    {
        "key-words": ["EMERAUDE  HB","EMERAUDE HANDBALL","EMERAUDE HB", "U18M EMERAUDE HB 2","U15F EMERAUDE HB"],
        "logo":"/uploads/images/logos/emeraude.webp"
    },
    {
        "key-words": ["ENTENTE PACE / GEVEZE","ENT PACE/GEVESE", "CLUB OLYMPIQUE PACEEN HB","CLUB OLYMPIQUE PACEEN HANDBALL","CO PACE HB","CO PACE","CO PACEEN HANDBALL","CO PACE HANDBALL"],
        "logo":"/uploads/images/logos/pace.webp",
        "name":"CO PACE"
    },
    {
        "key-words": ["U15F FEMININES OUEST RENNAIS BRO/ST GILLES","BROCÉLI'HAND","BROCELI HAND","BROCELI'HAND","BROCELI HAND","BROCELIHAND 15","BROCELIHAND 15-","BROCELIHAND  15-2F","BROCELIHAND 15-2F","BROCELIHAND ST GILLES","BROCELIHAND ST GILLE"],
        "logo":"/uploads/images/logos/broceliande.webp"
    },
    {
        "key-words": ["RGP +16F TER HBC ARLEQUIN - THORIGNE 2 (D2-P5)","HBC ARLEQUIN ST AUBIN D'AUBIGN","HBC ARLEQUIN ST AUBIN","HBCA ST AUBIN","HBC ARLEQUIN","HBCA ST AUBIN D'AUBIGNE","HBCA ST AUBIN D'AUBIGNE","HBC A D'AUBIN"],
        "logo":"/uploads/images/logos/staubinarlequins.webp",
        "name":"HBC ARLEQUIN"
    },
    {
        "key-words": ["AS GEVEZE HB","GEVEZE"],
        "logo":"/uploads/images/logos/geveze.webp"
    },
    {
        "key-words": ["SC MÉVENNAIS","SC MEVENNAIS HB","RGPT SC MEVENNAIS-BROONS HB","SC MEVENNAIS HANDBALL"],
        "logo":"/uploads/images/logos/stmeen.webp",
        "name":"SC MÉVENNAIS"
    },
    {
        "key-words": ["AMICALE LAÏQUE LOUDÉAC HANDBALL","AL LOUDEAC HB","ENT LOUDEAC LA MOTTE HB"],
        "logo":"/uploads/images/logos/loudeac.webp",
        "name":"AL LOUDÉAC"
    },
    {
        "key-words": ["U13M ENT CS BETTON/JA MELESSE","CS BETTON/JA MELESSE/THORIGNE","CS BETTON HANDBALL","CS BETTON","CS BETTON SECTION HB","CS BETTON SECTION HANDBALL","BETTON","CS BETTON HB","CS BETTON/JA MELESSE","ENT CS BETTON HB-JA MELESSE","ENT CS BETTON/JA MELESSE"],
        "logo":"/uploads/images/logos/betton.webp",
        "name":"CS BETTON"
    },
    {
        "key-words": ["CESSON RENNES METROPOLE HB","CESSON RMHB","CESSON RMH HB","CESSON RENNES MHB","CESSON","CESSON RENNES MHB "],
        "logo":"/uploads/images/logos/cessonrennes.webp",
        "name":"CESSON RMH"
    },
    {
        "key-words": ["HB RANCE FREMUR","HANDBALL BEAUSSAIS RANCE FREMUR","HB BEAUSSAIS RANCE FREMUR","BEAUSSAIS RANCE FREMUR"],
        "logo":"/uploads/images/logos/rancefremur.webp",
        "name":"HB RANCE FREMUR"
    },
    {
        "key-words": ["LEHON DINAN'COM HB","LEHON DINAN COM HB","LEHON DINAN", "LÉHON DINAN'COM HANDBALL"],
        "logo":"/uploads/images/logos/lehondinan.webp"
    },
    {
        "key-words": ["US SAINT GILLES","US ST GILLES","ST GILLES"],
        "logo":"/uploads/images/logos/stgilles.webp"
    },
    {
        "key-words": ["ESPERANCE CHARTRES DE BZH","ESP CHARTRES DE BRETAGNE HB / BRUZ","ESP CHARTRES DE BRETAGNE HB","ESP DE CHARTRES DE BRETAGNE HB","ESP DE CHARTRES DE BRETAGNE","ESPÉRANCE CHARTRES-BZH","ESP CHARTRES","ESP  CHARTRES","CHARTRES BZH", "ESPERANCE CHARTRS DE BRETAGNE HB", "CHARTRES DE BRETAGNE-BRUZ"],
        "logo":"/uploads/images/logos/chartres.webp",
        "name":"CHARTRES-BZH"
    },
    {
        "key-words": ["HAND BREIZH CLUB MELORIEN"],
        "logo":"/uploads/images/logos/hbcmelorien.webp",
        "name":"HBC MELORIEN"
    },
    {
        "key-words": ["MESNIL ROC'H HANDBALL","MESNIL ROC'H HB", "LA MESNILIENNE HB"],
        "logo":"/uploads/images/logos/mesnilroch.webp"
    },
    {
        "key-words": ["US VERN","VERN"],
        "logo":"/uploads/images/logos/vern.webp"
    },
    {
        "key-words": ["ASC JA MELESSE HB"],
        "logo":"/uploads/images/logos/melesse.webp",
        "name":"JA MELESSE"
    },
    {
        "key-words": ["D1M44-E-ENTENTE HBC BLAIN/SAVENAY HB"],
        "logo":"/uploads/images/logos/blain.webp",
        "name":"HBC BLAIN"
    },
    {
        "key-words": ["CJF SAINT MALO HB"],
        "logo":"/uploads/images/logos/stmalo.webp",
        "name":"CJF ST-MALO"
    },
    {
        "key-words": ["BAUD LOCMINE HB"],
        "logo":"/uploads/images/logos/baud.webp"
    },
    {
        "key-words": ["GUINGAMP HB"],
        "logo":"/uploads/images/logos/gaingamp.webp"
    },
    {
        "key-words": ["ENT COTE DE GRANIT ROSE"],
        "logo":"/uploads/images/logos/entGranitRose.webp",
        "name":"ENT COTE GRANIT ROSE"
    },
    {
        "key-words": ["ALS PLOUAGAT HB"],
        "logo":"/uploads/images/logos/plouagat.webp"
    },
    {
        "key-words": ["GOLFE VANNES AGGLO HB"],
        "logo":"/uploads/images/logos/golfe-vannes.webp",
        "name":"GOLFE VANNES AGGLO"
    },
    {
        "key-words": ["VANNES AC"],
        "logo":"/uploads/images/logos/vannes-ac.webp",
        "name":"GOLFE VANNES AGGLO"
    },
    {
        "key-words": ["CHATEAUGIRON HBC","RGPT CHATEAUGIRON-COBSE HB","CHATEAUGIRON COMMUNAUTE HBC 1AUTE HBC"],
        "logo":"/uploads/images/logos/chateaugiron.webp"
    },
    {
        "key-words": ["PAYS D'AURAY HB","PAYS D'AURAY HANDBALL", "PAYS AURAY HANDBALL"],
        "logo":"/uploads/images/logos/auray.webp",
        "name":"PAYS D'AURAY"
    },
    {
        "key-words": ["HB PAYS DE VANNES"],
        "logo":"/uploads/images/logos/hpv.webp"
    },
    {
        "key-words": ["U15M ENT PAYS DE LA GACILLY-ES REDON","PAYS DE LA GACILLY", "ENT PAYS DE LA GACILLY ES REDON", "ENT ES REDON PAYS DE LA GACILLY"],
        "logo":"/uploads/images/logos/gacily.webp"
    },
    {
        "key-words": ["RETIERS HB","RETIERS PRAFPG HB", "RETIERS PRAF PG HANDBALL","RETIERS PRAF PG HB","RETIERS PRAF PG HB","RETIERS HANDBALL"],
        "logo":"/uploads/images/logos/retiers-prafpg.webp"
    },
    {
        "key-words": ["AL PONTORSON"],
        "logo":"/uploads/images/logos/alpontorson.webp"
    },
    {
        "key-words": ["BAIE D'ARMOR HANDBALL PLERIN-ST BRIEUC", "ENT PLERIN PLOUFRAGAN", "U15F ENT PLERIN-PLOUFRAGAN"],
        "logo":"/uploads/images/logos/baiearmor.webp"
    },
    {
        "key-words": ["GUENIN-PLUMELIAU HB"],
        "logo":"/uploads/images/logos/GUENIN-PLUMELIAU-HB.webp"
    },
    {
        "key-words": ["STIREN LANGUIDIC HB"],
        "logo":"/uploads/images/logos/STIREN_LANGUIDIC_HB.webp"
    },
    {
        "key-words": ["ES SAINT-AVE MEUCON HB"],
        "logo":"/uploads/images/logos/ES_SAINT-AVE_MEUCON_HB.webp"
    },
    {
        "key-words": ["PIRATES DE GVA"],
        "logo":"/uploads/images/logos/PIRATES_DE_GVA.webp"
    },
    {
        "key-words": ["HBC NOYAL-MUZILLAC"],
        "logo":"/uploads/images/logos/HBC_NOYAL-MUZILLAC.webp"
    },
    {
        "key-words": ["ES PLESCOP HB"],
        "logo":"/uploads/images/logos/plescop.webp"
    },
    {
        "key-words": ["GUILLIERS MAURON HANDBALL"],
        "logo":"/uploads/images/logos/GUILLIERS_MAURON_HANDBALL.webp"
    },
    {
        "key-words": ["PORTES DE BRETAGNE HANDBALL"],
        "logo":"/uploads/images/logos/PORTES_DE_BRETAGNE_HANDBALL.webp"
    },
    {
        "key-words": ["LORIENT HBC"],
        "logo":"/uploads/images/logos/lorient_hbc.webp"
    }
    
    
    
    
]