[
    {
        "date_text": "DIMANCHE 15 SEPTEMBRE 2024",
        "team1": "BROCELIHAND 15-2F",
        "team2": "HBC310-2",
        "week_number": 37,
        "competition_name": "U15 FEMININE TERRITORIALE",
        "location": "AWAY",
        "day_number": 1,
        "url": "https://www.ffhandball.fr/competitions/saison-2024-2025-20/regional/u15-feminine-territoriale-25567/poule-149995/rencontre-2173197/",
        "date": "2024-09-15",
        "time": "12H30",
        "day_of_week": "dimanche",
        "score1": "34",
        "score2": "8",
        "gymnase": "SOS LES BATAILLES",
        "address": "ROUTE DE ST MEEN LE GRAND, 35160 MONTFORT SUR MEU"
    },
    {
        "date_text": "SAMEDI 21 SEPTEMBRE 2024",
        "team1": "HBC310-2",
        "team2": "RENNES MH-CHTBOURG-CHTGIRON 1",
        "week_number": 38,
        "competition_name": "U15 FEMININE TERRITORIALE",
        "location": "HOME",
        "day_number": 2,
        "url": "https://www.ffhandball.fr/competitions/saison-2024-2025-20/regional/u15-feminine-territoriale-25567/poule-149995/rencontre-2173199/",
        "date": "2024-09-21",
        "time": "16H45",
        "day_of_week": "samedi",
        "score1": "14",
        "score2": "28",
        "gymnase": "NOUVELLE SALLE",
        "address": "rue de la costardais, 35310 BREAL SOUS MONTFORT"
    },
    {
        "date_text": "SAMEDI 28 SEPTEMBRE 2024",
        "team1": "HBC310-2",
        "team2": "LA VITREENNE RETIERS HANDBALL 1",
        "week_number": 39,
        "competition_name": "U15 FEMININE TERRITORIALE",
        "location": "HOME",
        "day_number": 3,
        "url": "https://www.ffhandball.fr/competitions/saison-2024-2025-20/regional/u15-feminine-territoriale-25567/poule-149995/rencontre-2173203/",
        "date": "2024-09-28",
        "time": "13H45",
        "day_of_week": "samedi",
        "score1": "6",
        "score2": "35",
        "gymnase": "NOUVELLE SALLE",
        "address": "rue de la costardais, 35310 BREAL SOUS MONTFORT"
    },
    {
        "date_text": "SAMEDI 5 OCTOBRE 2024",
        "team1": "US BAIN DE BRETAGNE HANDBALL 1",
        "team2": "HBC310-2",
        "week_number": 40,
        "competition_name": "U15 FEMININE TERRITORIALE",
        "location": "AWAY",
        "day_number": 4,
        "url": "https://www.ffhandball.fr/competitions/saison-2024-2025-20/regional/u15-feminine-territoriale-25567/poule-149995/rencontre-2173207/",
        "date": "2024-10-5",
        "time": "15H30",
        "day_of_week": "samedi",
        "score1": "27",
        "score2": "11",
        "gymnase": "HENRI DUCKAERT",
        "address": "RUE DU CHENE VERT, 35470 BAIN DE BRETAGNE"
    }
]