[
    {
        "date_text": "SAMEDI 16 NOVEMBRE 2024",
        "team1": "THORIGNE FOUILLARD HANDBALL CLUB",
        "team2": "HBC 310 2",
        "week_number": 46,
        "competition_name": "U15 MASCULIN TERRITORIALE",
        "location": "AWAY",
        "day_number": 1,
        "url": "https://www.ffhandball.fr/competitions/saison-2024-2025-20/regional/u15-masculin-territoriale-25565/poule-156094/rencontre-2266236/",
        "date": "2024-11-16",
        "time": "14H30",
        "day_of_week": "samedi",
        "score1": "28",
        "score2": "27",
        "gymnase": "SALLE DES LONGRAIS",
        "address": "RUE DE LONGRAIS, 35235 THORIGNE FOUILLARD"
    },
    {
        "date_text": "SAMEDI 23 NOVEMBRE 2024",
        "team1": "HBC 310 2",
        "team2": "HBC A D'AUBIN 2",
        "week_number": 47,
        "competition_name": "U15 MASCULIN TERRITORIALE",
        "location": "HOME",
        "day_number": 2,
        "url": "https://www.ffhandball.fr/competitions/saison-2024-2025-20/regional/u15-masculin-territoriale-25565/poule-156094/rencontre-2266240/",
        "date": "2024-11-23",
        "time": "16H45",
        "day_of_week": "samedi",
        "score1": "23",
        "score2": "37",
        "gymnase": "NOUVELLE SALLE",
        "address": "rue de la costardais, 35310 BREAL SOUS MONTFORT"
    },
    {
        "date_text": "SAMEDI 7 DÉCEMBRE 2024",
        "team1": "RETIERS HANDBALL",
        "team2": "HBC 310 2",
        "week_number": 49,
        "competition_name": "U15 MASCULIN TERRITORIALE",
        "location": "AWAY",
        "day_number": 3,
        "url": "https://www.ffhandball.fr/competitions/saison-2024-2025-20/regional/u15-masculin-territoriale-25565/poule-156094/rencontre-2266243/",
        "date": "2024-12-7",
        "time": "18H15",
        "day_of_week": "samedi",
        "score1": "32",
        "score2": "28",
        "gymnase": "COSEC ROCHERS",
        "address": "RETHIER, 35240 RETIERS"
    },
    {
        "date_text": "SAMEDI 14 DÉCEMBRE 2024",
        "team1": "HBC 310 2",
        "team2": "CADETS DE BRETAGNE 1",
        "week_number": 50,
        "competition_name": "U15 MASCULIN TERRITORIALE",
        "location": "HOME",
        "day_number": 4,
        "url": "https://www.ffhandball.fr/competitions/saison-2024-2025-20/regional/u15-masculin-territoriale-25565/poule-156094/rencontre-2266246/",
        "date": "2024-12-14",
        "time": "16H30",
        "day_of_week": "samedi",
        "score1": "41",
        "score2": "29",
        "gymnase": "NOUVELLE SALLE",
        "address": "rue de la costardais, 35310 BREAL SOUS MONTFORT"
    },
    {
        "date_text": "SAMEDI 11 JANVIER 2025",
        "team1": "CMG SUR ILLE HB",
        "team2": "HBC 310 2",
        "week_number": 2,
        "competition_name": "U15 MASCULIN TERRITORIALE",
        "location": "AWAY",
        "day_number": 5,
        "url": "https://www.ffhandball.fr/competitions/saison-2024-2025-20/regional/u15-masculin-territoriale-25565/poule-156094/rencontre-2266249/",
        "date": "2025-01-11",
        "time": "14H00",
        "day_of_week": "samedi",
        "score1": "40",
        "score2": "18",
        "gymnase": "SOS LA CHAPELLE DES FTZ",
        "address": "RUE DE RENNES, 35520 LA CHAPELLE DES FOUGERETZ"
    },
    {
        "date_text": "SAMEDI 18 JANVIER 2025",
        "team1": "COBSE HB 2",
        "team2": "HBC 310 2",
        "week_number": 3,
        "competition_name": "U15 MASCULIN TERRITORIALE",
        "location": "AWAY",
        "day_number": 6,
        "url": "https://www.ffhandball.fr/competitions/saison-2024-2025-20/regional/u15-masculin-territoriale-25565/poule-156094/rencontre-2266254/",
        "date": "2025-01-18",
        "time": "15H30",
        "day_of_week": "samedi",
        "score1": "23",
        "score2": "35",
        "gymnase": "DUGUESCLIN",
        "address": "AVENUE DE LA MARE GUESCLIN, 35230 ST ERBLON"
    },
    {
        "date_text": "SAMEDI 1 FÉVRIER 2025",
        "team1": "HBC 310 2",
        "team2": "U15M ENT RENNES MH-CHATEAUBOURG-CHATEAUGIRON",
        "week_number": 5,
        "competition_name": "U15 MASCULIN TERRITORIALE",
        "location": "HOME",
        "day_number": 7,
        "url": "https://www.ffhandball.fr/competitions/saison-2024-2025-20/regional/u15-masculin-territoriale-25565/poule-156094/rencontre-2266259/",
        "date": "2025-02-1",
        "time": "17H00",
        "day_of_week": "samedi",
        "score1": "30",
        "score2": "28",
        "gymnase": "NOUVELLE SALLE",
        "address": "rue de la costardais, 35310 BREAL SOUS MONTFORT"
    },
    {
        "date_text": "SAMEDI 1 MARS 2025",
        "team1": "HBC 310 2",
        "team2": "THORIGNE FOUILLARD HANDBALL CLUB",
        "week_number": 9,
        "competition_name": "U15 MASCULIN TERRITORIALE",
        "location": "HOME",
        "day_number": 8,
        "url": "https://www.ffhandball.fr/competitions/saison-2024-2025-20/regional/u15-masculin-territoriale-25565/poule-156094/rencontre-2266264/",
        "date": "2025-03-1",
        "time": "13H30",
        "day_of_week": "samedi",
        "score1": "-",
        "score2": "-",
        "gymnase": "NOUVELLE SALLE",
        "address": "rue de la costardais, 35310 BREAL SOUS MONTFORT"
    },
    {
        "date_text": "SAMEDI 15 MARS 2025",
        "team1": "HBC A D'AUBIN 2",
        "team2": "HBC 310 2",
        "week_number": 11,
        "competition_name": "U15 MASCULIN TERRITORIALE",
        "location": "AWAY",
        "day_number": 9,
        "url": "https://www.ffhandball.fr/competitions/saison-2024-2025-20/regional/u15-masculin-territoriale-25565/poule-156094/rencontre-2266268/",
        "date": "2025-03-15",
        "time": "14H30",
        "day_of_week": "samedi",
        "score1": "-",
        "score2": "-",
        "gymnase": "SOS",
        "address": "29 RUE DU STADE, 35250 ST AUBIN D AUBIGNE"
    },
    {
        "date_text": "SAMEDI 22 MARS 2025",
        "team1": "HBC 310 2",
        "team2": "RETIERS HANDBALL",
        "week_number": 12,
        "competition_name": "U15 MASCULIN TERRITORIALE",
        "location": "HOME",
        "day_number": 10,
        "url": "https://www.ffhandball.fr/competitions/saison-2024-2025-20/regional/u15-masculin-territoriale-25565/poule-156094/rencontre-2266271/",
        "date": "2025-03-22",
        "time": "16H45",
        "day_of_week": "samedi",
        "score1": "-",
        "score2": "-",
        "gymnase": "NOUVELLE SALLE",
        "address": "rue de la costardais, 35310 BREAL SOUS MONTFORT"
    },
    {
        "date_text": "29 MARS 2025 AU 30 MARS 2025",
        "team1": "CADETS DE BRETAGNE 1",
        "team2": "HBC 310 2",
        "week_number": "Inconnu",
        "competition_name": "U15 MASCULIN TERRITORIALE",
        "location": "AWAY",
        "day_number": 11,
        "url": "https://www.ffhandball.fr/competitions/saison-2024-2025-20/regional/u15-masculin-territoriale-25565/poule-156094/rencontre-2266274/",
        "date": "Inconnu",
        "time": "Inconnu",
        "score1": "-",
        "score2": "-"
    },
    {
        "date_text": "26 AVRIL 2025 AU 27 AVRIL 2025",
        "team1": "HBC 310 2",
        "team2": "CMG SUR ILLE HB",
        "week_number": "Inconnu",
        "competition_name": "U15 MASCULIN TERRITORIALE",
        "location": "HOME",
        "day_number": 12,
        "url": "https://www.ffhandball.fr/competitions/saison-2024-2025-20/regional/u15-masculin-territoriale-25565/poule-156094/rencontre-2266277/",
        "date": "Inconnu",
        "time": "Inconnu",
        "score1": "-",
        "score2": "-"
    },
    {
        "date_text": "3 MAI 2025 AU 4 MAI 2025",
        "team1": "HBC 310 2",
        "team2": "COBSE HB 2",
        "week_number": "Inconnu",
        "competition_name": "U15 MASCULIN TERRITORIALE",
        "location": "HOME",
        "day_number": 13,
        "url": "https://www.ffhandball.fr/competitions/saison-2024-2025-20/regional/u15-masculin-territoriale-25565/poule-156094/rencontre-2266282/",
        "date": "Inconnu",
        "time": "Inconnu",
        "score1": "-",
        "score2": "-"
    },
    {
        "date_text": "17 MAI 2025 AU 18 MAI 2025",
        "team1": "U15M ENT RENNES MH-CHATEAUBOURG-CHATEAUGIRON",
        "team2": "HBC 310 2",
        "week_number": "Inconnu",
        "competition_name": "U15 MASCULIN TERRITORIALE",
        "location": "AWAY",
        "day_number": 14,
        "url": "https://www.ffhandball.fr/competitions/saison-2024-2025-20/regional/u15-masculin-territoriale-25565/poule-156094/rencontre-2266287/",
        "date": "Inconnu",
        "time": "Inconnu",
        "score1": "-",
        "score2": "-"
    }
]