[
    {
        "position": "1",
        "club": "AL CANCALE",
        "points": "21",
        "joues": "7",
        "gagnes": "7",
        "nuls": "0",
        "perdus": "0",
        "buts_plus": "326",
        "buts_moins": "195",
        "diff_buts": "131",
        "forme": "<span class=\"style_formesWrapper__eYuQj\"><span title=\"Gagné\" class=\"style_gagne__Hm19Q\"></span><span title=\"Gagné\" class=\"style_gagne__Hm19Q\"></span><span title=\"Gagné\" class=\"style_gagne__Hm19Q\"></span><span title=\"Gagné\" class=\"style_gagne__Hm19Q\"></span><span title=\"Gagné\" class=\"style_gagne__Hm19Q\"></span><i class=\"fi fi-rs-exclamation style_icon__Iu9v1\" title=\"Résultats des derniers matchs\"></i></span>"
    },
    {
        "position": "2",
        "club": "HBC 310 1",
        "points": "17",
        "joues": "7",
        "gagnes": "5",
        "nuls": "0",
        "perdus": "2",
        "buts_plus": "255",
        "buts_moins": "230",
        "diff_buts": "25",
        "forme": "<span class=\"style_formesWrapper__eYuQj\"><span title=\"Gagné\" class=\"style_gagne__Hm19Q\"></span><span title=\"Gagné\" class=\"style_gagne__Hm19Q\"></span><span title=\"Gagné\" class=\"style_gagne__Hm19Q\"></span><span title=\"Gagné\" class=\"style_gagne__Hm19Q\"></span><span title=\"Perdu\" class=\"style_perdu__ojgc2\"></span><i class=\"fi fi-rs-exclamation style_icon__Iu9v1\" title=\"Résultats des derniers matchs\"></i></span>"
    },
    {
        "position": "3",
        "club": "AGL HANDBALL FOUGERES 1",
        "points": "17",
        "joues": "7",
        "gagnes": "5",
        "nuls": "0",
        "perdus": "2",
        "buts_plus": "205",
        "buts_moins": "200",
        "diff_buts": "5",
        "forme": "<span class=\"style_formesWrapper__eYuQj\"><span title=\"Gagné\" class=\"style_gagne__Hm19Q\"></span><span title=\"Perdu\" class=\"style_perdu__ojgc2\"></span><span title=\"Gagné\" class=\"style_gagne__Hm19Q\"></span><span title=\"Gagné\" class=\"style_gagne__Hm19Q\"></span><span title=\"Gagné\" class=\"style_gagne__Hm19Q\"></span><i class=\"fi fi-rs-exclamation style_icon__Iu9v1\" title=\"Résultats des derniers matchs\"></i></span>"
    },
    {
        "position": "4",
        "club": "US BAIN DE BRETAGNE HANDBALL 1",
        "points": "13",
        "joues": "7",
        "gagnes": "2",
        "nuls": "2",
        "perdus": "3",
        "buts_plus": "210",
        "buts_moins": "206",
        "diff_buts": "4",
        "forme": "<span class=\"style_formesWrapper__eYuQj\"><span title=\"Gagné\" class=\"style_gagne__Hm19Q\"></span><span title=\"Nul\" class=\"style_nul__+euNY\"></span><span title=\"Perdu\" class=\"style_perdu__ojgc2\"></span><span title=\"Perdu\" class=\"style_perdu__ojgc2\"></span><span title=\"Nul\" class=\"style_nul__+euNY\"></span><i class=\"fi fi-rs-exclamation style_icon__Iu9v1\" title=\"Résultats des derniers matchs\"></i></span>"
    },
    {
        "position": "5",
        "club": "OC MONTAUBAN",
        "points": "13",
        "joues": "7",
        "gagnes": "2",
        "nuls": "2",
        "perdus": "3",
        "buts_plus": "218",
        "buts_moins": "244",
        "diff_buts": "-26",
        "forme": "<span class=\"style_formesWrapper__eYuQj\"><span title=\"Perdu\" class=\"style_perdu__ojgc2\"></span><span title=\"Gagné\" class=\"style_gagne__Hm19Q\"></span><span title=\"Gagné\" class=\"style_gagne__Hm19Q\"></span><span title=\"Perdu\" class=\"style_perdu__ojgc2\"></span><span title=\"Nul\" class=\"style_nul__+euNY\"></span><i class=\"fi fi-rs-exclamation style_icon__Iu9v1\" title=\"Résultats des derniers matchs\"></i></span>"
    },
    {
        "position": "6",
        "club": "RENNES MH-CHATEAUBOURG-CHATEAUGIRON 1",
        "points": "12",
        "joues": "7",
        "gagnes": "2",
        "nuls": "1",
        "perdus": "4",
        "buts_plus": "188",
        "buts_moins": "226",
        "diff_buts": "-38",
        "forme": "<span class=\"style_formesWrapper__eYuQj\"><span title=\"Perdu\" class=\"style_perdu__ojgc2\"></span><span title=\"Nul\" class=\"style_nul__+euNY\"></span><span title=\"Perdu\" class=\"style_perdu__ojgc2\"></span><span title=\"Perdu\" class=\"style_perdu__ojgc2\"></span><span title=\"Perdu\" class=\"style_perdu__ojgc2\"></span><i class=\"fi fi-rs-exclamation style_icon__Iu9v1\" title=\"Résultats des derniers matchs\"></i></span>"
    },
    {
        "position": "7",
        "club": "ENT CS BETTON/JA MELESSE",
        "points": "12",
        "joues": "7",
        "gagnes": "2",
        "nuls": "1",
        "perdus": "4",
        "buts_plus": "213",
        "buts_moins": "212",
        "diff_buts": "1",
        "forme": "<span class=\"style_formesWrapper__eYuQj\"><span title=\"Perdu\" class=\"style_perdu__ojgc2\"></span><span title=\"Perdu\" class=\"style_perdu__ojgc2\"></span><span title=\"Perdu\" class=\"style_perdu__ojgc2\"></span><span title=\"Gagné\" class=\"style_gagne__Hm19Q\"></span><span title=\"Gagné\" class=\"style_gagne__Hm19Q\"></span><i class=\"fi fi-rs-exclamation style_icon__Iu9v1\" title=\"Résultats des derniers matchs\"></i></span>"
    },
    {
        "position": "8",
        "club": "CO PACE HANDBALL",
        "points": "7",
        "joues": "7",
        "gagnes": "0",
        "nuls": "0",
        "perdus": "7",
        "buts_plus": "149",
        "buts_moins": "251",
        "diff_buts": "-102",
        "forme": "<span class=\"style_formesWrapper__eYuQj\"><span title=\"Perdu\" class=\"style_perdu__ojgc2\"></span><span title=\"Perdu\" class=\"style_perdu__ojgc2\"></span><span title=\"Perdu\" class=\"style_perdu__ojgc2\"></span><span title=\"Perdu\" class=\"style_perdu__ojgc2\"></span><span title=\"Perdu\" class=\"style_perdu__ojgc2\"></span><i class=\"fi fi-rs-exclamation style_icon__Iu9v1\" title=\"Résultats des derniers matchs\"></i></span>"
    }
]