[
    {
        "date_text": "DIMANCHE 1 DÉCEMBRE 2024",
        "team1": "HBC 310 3",
        "team2": "BROCELIHAND 15-3",
        "week_number": 48,
        "competition_name": "U15 MASCULIN TERRITORIALE",
        "location": "HOME",
        "day_number": 1,
        "url": "https://www.ffhandball.fr/competitions/saison-2024-2025-20/regional/u15-masculin-territoriale-25565/poule-156093/rencontre-2266177/",
        "date": "2024-12-1",
        "time": "14H00",
        "day_of_week": "dimanche",
        "score1": "29",
        "score2": "25",
        "gymnase": "NOUVELLE SALLE",
        "address": "rue de la costardais, 35310 BREAL SOUS MONTFORT"
    },
    {
        "date_text": "SAMEDI 23 NOVEMBRE 2024",
        "team1": "ASC MAURE HANDBALL 1",
        "team2": "HBC 310 3",
        "week_number": 47,
        "competition_name": "U15 MASCULIN TERRITORIALE",
        "location": "AWAY",
        "day_number": 2,
        "url": "https://www.ffhandball.fr/competitions/saison-2024-2025-20/regional/u15-masculin-territoriale-25565/poule-156093/rencontre-2266182/",
        "date": "2024-11-23",
        "time": "17H45",
        "day_of_week": "samedi",
        "score1": "24",
        "score2": "29",
        "gymnase": "SALLE CALYPSO",
        "address": "2 rue du carpont, 35330 MAURE DE BRETAGNE"
    },
    {
        "date_text": "SAMEDI 7 DÉCEMBRE 2024",
        "team1": "HBC 310 3",
        "team2": "JA BRUZ HANDBALL",
        "week_number": 49,
        "competition_name": "U15 MASCULIN TERRITORIALE",
        "location": "HOME",
        "day_number": 3,
        "url": "https://www.ffhandball.fr/competitions/saison-2024-2025-20/regional/u15-masculin-territoriale-25565/poule-156093/rencontre-2266187/",
        "date": "2024-12-7",
        "time": "15H15",
        "day_of_week": "samedi",
        "score1": "28",
        "score2": "40",
        "gymnase": "NOUVELLE SALLE",
        "address": "rue de la costardais, 35310 BREAL SOUS MONTFORT"
    },
    {
        "date_text": "SAMEDI 14 DÉCEMBRE 2024",
        "team1": "PAYS DE BROONS",
        "team2": "HBC 310 3",
        "week_number": 50,
        "competition_name": "U15 MASCULIN TERRITORIALE",
        "location": "AWAY",
        "day_number": 4,
        "url": "https://www.ffhandball.fr/competitions/saison-2024-2025-20/regional/u15-masculin-territoriale-25565/poule-156093/rencontre-2266192/",
        "date": "2024-12-14",
        "time": "15H15",
        "day_of_week": "samedi",
        "score1": "37",
        "score2": "34",
        "gymnase": "BROONS LE CHALET",
        "address": "LE CHALET, 22250 BROONS"
    },
    {
        "date_text": "SAMEDI 11 JANVIER 2025",
        "team1": "HBC 310 3",
        "team2": "GUICHEN HB 1",
        "week_number": 2,
        "competition_name": "U15 MASCULIN TERRITORIALE",
        "location": "HOME",
        "day_number": 5,
        "url": "https://www.ffhandball.fr/competitions/saison-2024-2025-20/regional/u15-masculin-territoriale-25565/poule-156093/rencontre-2266196/",
        "date": "2025-01-11",
        "time": "14H45",
        "day_of_week": "samedi",
        "score1": "28",
        "score2": "29",
        "gymnase": "NOUVELLE SALLE",
        "address": "rue de la costardais, 35310 BREAL SOUS MONTFORT"
    },
    {
        "date_text": "SAMEDI 18 JANVIER 2025",
        "team1": "US SAINT GILLES",
        "team2": "HBC 310 3",
        "week_number": 3,
        "competition_name": "U15 MASCULIN TERRITORIALE",
        "location": "AWAY",
        "day_number": 6,
        "url": "https://www.ffhandball.fr/competitions/saison-2024-2025-20/regional/u15-masculin-territoriale-25565/poule-156093/rencontre-2266199/",
        "date": "2025-01-18",
        "time": "14H15",
        "day_of_week": "samedi",
        "score1": "34",
        "score2": "18",
        "gymnase": "SALLE DES SPORTS",
        "address": "RUE DE RENNES, 35590 ST GILLES"
    },
    {
        "date_text": "SAMEDI 8 MARS 2025",
        "team1": "HBC 310 3",
        "team2": "CPB RENNES 3",
        "week_number": 10,
        "competition_name": "U15 MASCULIN TERRITORIALE",
        "location": "HOME",
        "day_number": 7,
        "url": "https://www.ffhandball.fr/competitions/saison-2024-2025-20/regional/u15-masculin-territoriale-25565/poule-156093/rencontre-2266202/",
        "date": "2025-03-8",
        "time": "16H00",
        "day_of_week": "samedi",
        "score1": "-",
        "score2": "-",
        "gymnase": "NOUVELLE SALLE",
        "address": "rue de la costardais, 35310 BREAL SOUS MONTFORT"
    },
    {
        "date_text": "SAMEDI 1 MARS 2025",
        "team1": "BROCELIHAND 15-3",
        "team2": "HBC 310 3",
        "week_number": 9,
        "competition_name": "U15 MASCULIN TERRITORIALE",
        "location": "AWAY",
        "day_number": 8,
        "url": "https://www.ffhandball.fr/competitions/saison-2024-2025-20/regional/u15-masculin-territoriale-25565/poule-156093/rencontre-2266205/",
        "date": "2025-03-1",
        "time": "16H45",
        "day_of_week": "samedi",
        "score1": "-",
        "score2": "-",
        "gymnase": "SOS LES BATAILLES",
        "address": "ROUTE DE ST MEEN LE GRAND, 35160 MONTFORT SUR MEU"
    },
    {
        "date_text": "DIMANCHE 16 MARS 2025",
        "team1": "HBC 310 3",
        "team2": "ASC MAURE HANDBALL 1",
        "week_number": 11,
        "competition_name": "U15 MASCULIN TERRITORIALE",
        "location": "HOME",
        "day_number": 9,
        "url": "https://www.ffhandball.fr/competitions/saison-2024-2025-20/regional/u15-masculin-territoriale-25565/poule-156093/rencontre-2266210/",
        "date": "2025-03-16",
        "time": "12H00",
        "day_of_week": "dimanche",
        "score1": "-",
        "score2": "-",
        "gymnase": "NOUVELLE SALLE",
        "address": "rue de la costardais, 35310 BREAL SOUS MONTFORT"
    },
    {
        "date_text": "SAMEDI 22 MARS 2025",
        "team1": "JA BRUZ HANDBALL",
        "team2": "HBC 310 3",
        "week_number": 12,
        "competition_name": "U15 MASCULIN TERRITORIALE",
        "location": "AWAY",
        "day_number": 10,
        "url": "https://www.ffhandball.fr/competitions/saison-2024-2025-20/regional/u15-masculin-territoriale-25565/poule-156093/rencontre-2266215/",
        "date": "2025-03-22",
        "time": "15H30",
        "day_of_week": "samedi",
        "score1": "-",
        "score2": "-",
        "gymnase": "COLETTE BESSON",
        "address": "AVENUE LAVOISIER, 35170 BRUZ"
    },
    {
        "date_text": "SAMEDI 29 MARS 2025",
        "team1": "HBC 310 3",
        "team2": "PAYS DE BROONS",
        "week_number": 13,
        "competition_name": "U15 MASCULIN TERRITORIALE",
        "location": "HOME",
        "day_number": 11,
        "url": "https://www.ffhandball.fr/competitions/saison-2024-2025-20/regional/u15-masculin-territoriale-25565/poule-156093/rencontre-2266220/",
        "date": "2025-03-29",
        "time": "15H00",
        "day_of_week": "samedi",
        "score1": "-",
        "score2": "-",
        "gymnase": "NOUVELLE SALLE",
        "address": "rue de la costardais, 35310 BREAL SOUS MONTFORT"
    },
    {
        "date_text": "SAMEDI 26 AVRIL 2025",
        "team1": "GUICHEN HB 1",
        "team2": "HBC 310 3",
        "week_number": 17,
        "competition_name": "U15 MASCULIN TERRITORIALE",
        "location": "AWAY",
        "day_number": 12,
        "url": "https://www.ffhandball.fr/competitions/saison-2024-2025-20/regional/u15-masculin-territoriale-25565/poule-156093/rencontre-2266224/",
        "date": "2025-04-26",
        "time": "15H15",
        "day_of_week": "samedi",
        "score1": "-",
        "score2": "-",
        "gymnase": "ALAIN COLAS",
        "address": "RUE DE FAGUES, 35580 GUICHEN"
    },
    {
        "date_text": "3 MAI 2025 AU 4 MAI 2025",
        "team1": "HBC 310 3",
        "team2": "US SAINT GILLES",
        "week_number": "Inconnu",
        "competition_name": "U15 MASCULIN TERRITORIALE",
        "location": "HOME",
        "day_number": 13,
        "url": "https://www.ffhandball.fr/competitions/saison-2024-2025-20/regional/u15-masculin-territoriale-25565/poule-156093/rencontre-2266227/",
        "date": "Inconnu",
        "time": "Inconnu",
        "score1": "-",
        "score2": "-"
    },
    {
        "date_text": "17 MAI 2025 AU 18 MAI 2025",
        "team1": "CPB RENNES 3",
        "team2": "HBC 310 3",
        "week_number": "Inconnu",
        "competition_name": "U15 MASCULIN TERRITORIALE",
        "location": "AWAY",
        "day_number": 14,
        "url": "https://www.ffhandball.fr/competitions/saison-2024-2025-20/regional/u15-masculin-territoriale-25565/poule-156093/rencontre-2266230/",
        "date": "Inconnu",
        "time": "Inconnu",
        "score1": "-",
        "score2": "-"
    }
]