[
    {
        "position": "1",
        "club": "HBC CHATEAUBOURG 1",
        "points": "12",
        "joues": "4",
        "gagnes": "4",
        "nuls": "0",
        "perdus": "0",
        "buts_plus": "97",
        "buts_moins": "56",
        "diff_buts": "41",
        "forme": "<span class=\"style_formesWrapper__eYuQj\"><span title=\"Gagné\" class=\"style_gagne__Hm19Q\"></span><span title=\"Gagné\" class=\"style_gagne__Hm19Q\"></span><span title=\"Gagné\" class=\"style_gagne__Hm19Q\"></span><span title=\"Gagné\" class=\"style_gagne__Hm19Q\"></span><i class=\"fi fi-rs-exclamation style_icon__Iu9v1\" title=\"Résultats des derniers matchs\"></i></span>"
    },
    {
        "position": "2",
        "club": "ASC MAURE",
        "points": "10",
        "joues": "4",
        "gagnes": "3",
        "nuls": "0",
        "perdus": "1",
        "buts_plus": "89",
        "buts_moins": "66",
        "diff_buts": "23",
        "forme": "<span class=\"style_formesWrapper__eYuQj\"><span title=\"Gagné\" class=\"style_gagne__Hm19Q\"></span><span title=\"Perdu\" class=\"style_perdu__ojgc2\"></span><span title=\"Gagné\" class=\"style_gagne__Hm19Q\"></span><span title=\"Gagné\" class=\"style_gagne__Hm19Q\"></span><i class=\"fi fi-rs-exclamation style_icon__Iu9v1\" title=\"Résultats des derniers matchs\"></i></span>"
    },
    {
        "position": "3",
        "club": "HBC 310 1",
        "points": "8",
        "joues": "4",
        "gagnes": "2",
        "nuls": "0",
        "perdus": "2",
        "buts_plus": "70",
        "buts_moins": "60",
        "diff_buts": "10",
        "forme": "<span class=\"style_formesWrapper__eYuQj\"><span title=\"Perdu\" class=\"style_perdu__ojgc2\"></span><span title=\"Gagné\" class=\"style_gagne__Hm19Q\"></span><span title=\"Gagné\" class=\"style_gagne__Hm19Q\"></span><span title=\"Perdu\" class=\"style_perdu__ojgc2\"></span><i class=\"fi fi-rs-exclamation style_icon__Iu9v1\" title=\"Résultats des derniers matchs\"></i></span>"
    },
    {
        "position": "4",
        "club": "GUICHEN HB",
        "points": "6",
        "joues": "4",
        "gagnes": "1",
        "nuls": "0",
        "perdus": "3",
        "buts_plus": "49",
        "buts_moins": "102",
        "diff_buts": "-53",
        "forme": "<span class=\"style_formesWrapper__eYuQj\"><span title=\"Gagné\" class=\"style_gagne__Hm19Q\"></span><span title=\"Perdu\" class=\"style_perdu__ojgc2\"></span><span title=\"Perdu\" class=\"style_perdu__ojgc2\"></span><span title=\"Perdu\" class=\"style_perdu__ojgc2\"></span><i class=\"fi fi-rs-exclamation style_icon__Iu9v1\" title=\"Résultats des derniers matchs\"></i></span>"
    },
    {
        "position": "5",
        "club": "LA VITREENNE 2",
        "points": "4",
        "joues": "4",
        "gagnes": "0",
        "nuls": "0",
        "perdus": "4",
        "buts_plus": "33",
        "buts_moins": "54",
        "diff_buts": "-21",
        "forme": "<span class=\"style_formesWrapper__eYuQj\"><span title=\"Perdu\" class=\"style_perdu__ojgc2\"></span><span title=\"Perdu\" class=\"style_perdu__ojgc2\"></span><span title=\"Perdu\" class=\"style_perdu__ojgc2\"></span><span title=\"Perdu\" class=\"style_perdu__ojgc2\"></span><i class=\"fi fi-rs-exclamation style_icon__Iu9v1\" title=\"Résultats des derniers matchs\"></i></span>"
    }
]