[
    {
        "date_text": "SAMEDI 16 NOVEMBRE 2024",
        "team1": "HBC 310 1",
        "team2": "HBC CHATEAUBOURG 1",
        "week_number": 46,
        "competition_name": "U11 FEMININE TERRITORIALE",
        "location": "HOME",
        "day_number": 1,
        "url": "https://www.ffhandball.fr/competitions/saison-2024-2025-20/regional/u11-feminine-territoriale-25569/poule-155805/rencontre-2259311/",
        "date": "2024-11-16",
        "time": "12H30",
        "day_of_week": "samedi",
        "score1": "12",
        "score2": "22",
        "gymnase": "NOUVELLE SALLE",
        "address": "rue de la costardais, 35310 BREAL SOUS MONTFORT"
    },
    {
        "date_text": "SAMEDI 30 NOVEMBRE 2024",
        "team1": "HBC 310 1",
        "team2": "LA VITREENNE 2",
        "week_number": 48,
        "competition_name": "U11 FEMININE TERRITORIALE",
        "location": "HOME",
        "day_number": 3,
        "url": "https://www.ffhandball.fr/competitions/saison-2024-2025-20/regional/u11-feminine-territoriale-25569/poule-155805/rencontre-2259319/",
        "date": "2024-11-30",
        "time": "13H30",
        "day_of_week": "samedi",
        "score1": "10",
        "score2": "7",
        "gymnase": "NOUVELLE SALLE",
        "address": "rue de la costardais, 35310 BREAL SOUS MONTFORT"
    },
    {
        "date_text": "SAMEDI 7 DÉCEMBRE 2024",
        "team1": "GUICHEN HB",
        "team2": "HBC 310 1",
        "week_number": 49,
        "competition_name": "U11 FEMININE TERRITORIALE",
        "location": "AWAY",
        "day_number": 4,
        "url": "https://www.ffhandball.fr/competitions/saison-2024-2025-20/regional/u11-feminine-territoriale-25569/poule-155805/rencontre-2259320/",
        "date": "2024-12-7",
        "time": "12H30",
        "day_of_week": "samedi",
        "score1": "10",
        "score2": "30",
        "gymnase": "ALAIN COLAS",
        "address": "RUE DE FAGUES, 35580 GUICHEN"
    },
    {
        "date_text": "SAMEDI 14 DÉCEMBRE 2024",
        "team1": "HBC 310 1",
        "team2": "ASC MAURE",
        "week_number": 50,
        "competition_name": "U11 FEMININE TERRITORIALE",
        "location": "HOME",
        "day_number": 5,
        "url": "https://www.ffhandball.fr/competitions/saison-2024-2025-20/regional/u11-feminine-territoriale-25569/poule-155805/rencontre-2259323/",
        "date": "2024-12-14",
        "time": "13H30",
        "day_of_week": "samedi",
        "score1": "18",
        "score2": "21",
        "gymnase": "NOUVELLE SALLE",
        "address": "rue de la costardais, 35310 BREAL SOUS MONTFORT"
    }
]