[
    {
        "date_text": "SAMEDI 16 NOVEMBRE 2024",
        "team1": "HBC 310 1",
        "team2": "CPB RENNES HB 1",
        "week_number": 46,
        "competition_name": "U11MIXTE TERRITORIALE",
        "location": "HOME",
        "day_number": 1,
        "url": "https://www.ffhandball.fr/competitions/saison-2024-2025-20/regional/u11mixte-territoriale-25570/poule-156566/rencontre-2259568/",
        "date": "2024-11-16",
        "time": "10H00",
        "day_of_week": "samedi",
        "score1": "14",
        "score2": "36",
        "gymnase": "NOUVELLE SALLE",
        "address": "rue de la costardais, 35310 BREAL SOUS MONTFORT"
    },
    {
        "date_text": "SAMEDI 23 NOVEMBRE 2024",
        "team1": "ASC MAURE HB 1",
        "team2": "HBC 310 1",
        "week_number": 47,
        "competition_name": "U11MIXTE TERRITORIALE",
        "location": "AWAY",
        "day_number": 2,
        "url": "https://www.ffhandball.fr/competitions/saison-2024-2025-20/regional/u11mixte-territoriale-25570/poule-156566/rencontre-2259570/",
        "date": "2024-11-23",
        "time": "15H20",
        "day_of_week": "samedi",
        "score1": "24",
        "score2": "13",
        "gymnase": "SALLE CALYPSO",
        "address": "2 rue du carpont, 35330 MAURE DE BRETAGNE"
    },
    {
        "date_text": "SAMEDI 30 NOVEMBRE 2024",
        "team1": "HBC 310 1",
        "team2": "ES REDON",
        "week_number": 48,
        "competition_name": "U11MIXTE TERRITORIALE",
        "location": "HOME",
        "day_number": 3,
        "url": "https://www.ffhandball.fr/competitions/saison-2024-2025-20/regional/u11mixte-territoriale-25570/poule-156566/rencontre-2259572/",
        "date": "2024-11-30",
        "time": "16H00",
        "day_of_week": "samedi",
        "score1": "29",
        "score2": "33",
        "gymnase": "NOUVELLE SALLE",
        "address": "rue de la costardais, 35310 BREAL SOUS MONTFORT"
    },
    {
        "date_text": "SAMEDI 7 DÉCEMBRE 2024",
        "team1": "HBC 310 1",
        "team2": "RETIERS PRAFPG HB 1",
        "week_number": 49,
        "competition_name": "U11MIXTE TERRITORIALE",
        "location": "HOME",
        "day_number": 4,
        "url": "https://www.ffhandball.fr/competitions/saison-2024-2025-20/regional/u11mixte-territoriale-25570/poule-156566/rencontre-2259577/",
        "date": "2024-12-7",
        "time": "10H00",
        "day_of_week": "samedi",
        "score1": "18",
        "score2": "13",
        "gymnase": "NOUVELLE SALLE",
        "address": "rue de la costardais, 35310 BREAL SOUS MONTFORT"
    },
    {
        "date_text": "SAMEDI 14 DÉCEMBRE 2024",
        "team1": "CO PACE HB 1",
        "team2": "HBC 310 1",
        "week_number": 50,
        "competition_name": "U11MIXTE TERRITORIALE",
        "location": "AWAY",
        "day_number": 5,
        "url": "https://www.ffhandball.fr/competitions/saison-2024-2025-20/regional/u11mixte-territoriale-25570/poule-156566/rencontre-2259578/",
        "date": "2024-12-14",
        "time": "11H30",
        "day_of_week": "samedi",
        "score1": "31",
        "score2": "20",
        "gymnase": "SALLE CORNOUAILLE",
        "address": "avenue le brix, 35740 PACE"
    }
]