[
    {
        "position": "1",
        "club": "RETIERS HANDBALL",
        "points": "20",
        "joues": "7",
        "gagnes": "6",
        "nuls": "1",
        "perdus": "0",
        "buts_plus": "193",
        "buts_moins": "149",
        "diff_buts": "44",
        "forme": "<span class=\"style_formesWrapper__eYuQj\"><span title=\"Gagné\" class=\"style_gagne__Hm19Q\"></span><span title=\"Gagné\" class=\"style_gagne__Hm19Q\"></span><span title=\"Gagné\" class=\"style_gagne__Hm19Q\"></span><span title=\"Nul\" class=\"style_nul__+euNY\"></span><span title=\"Gagné\" class=\"style_gagne__Hm19Q\"></span><i class=\"fi fi-rs-exclamation style_icon__Iu9v1\" title=\"Résultats des derniers matchs\"></i></span>"
    },
    {
        "position": "2",
        "club": "THORIGNE FOUILLARD HANDBALL CLUB",
        "points": "20",
        "joues": "7",
        "gagnes": "6",
        "nuls": "1",
        "perdus": "0",
        "buts_plus": "214",
        "buts_moins": "192",
        "diff_buts": "22",
        "forme": "<span class=\"style_formesWrapper__eYuQj\"><span title=\"Gagné\" class=\"style_gagne__Hm19Q\"></span><span title=\"Gagné\" class=\"style_gagne__Hm19Q\"></span><span title=\"Gagné\" class=\"style_gagne__Hm19Q\"></span><span title=\"Nul\" class=\"style_nul__+euNY\"></span><span title=\"Gagné\" class=\"style_gagne__Hm19Q\"></span><i class=\"fi fi-rs-exclamation style_icon__Iu9v1\" title=\"Résultats des derniers matchs\"></i></span>"
    },
    {
        "position": "3",
        "club": "CMG SUR ILLE HB",
        "points": "17",
        "joues": "7",
        "gagnes": "5",
        "nuls": "0",
        "perdus": "2",
        "buts_plus": "224",
        "buts_moins": "177",
        "diff_buts": "47",
        "forme": "<span class=\"style_formesWrapper__eYuQj\"><span title=\"Gagné\" class=\"style_gagne__Hm19Q\"></span><span title=\"Perdu\" class=\"style_perdu__ojgc2\"></span><span title=\"Gagné\" class=\"style_gagne__Hm19Q\"></span><span title=\"Gagné\" class=\"style_gagne__Hm19Q\"></span><span title=\"Gagné\" class=\"style_gagne__Hm19Q\"></span><i class=\"fi fi-rs-exclamation style_icon__Iu9v1\" title=\"Résultats des derniers matchs\"></i></span>"
    },
    {
        "position": "4",
        "club": "HBC A D'AUBIN 2",
        "points": "15",
        "joues": "7",
        "gagnes": "4",
        "nuls": "0",
        "perdus": "3",
        "buts_plus": "209",
        "buts_moins": "165",
        "diff_buts": "44",
        "forme": "<span class=\"style_formesWrapper__eYuQj\"><span title=\"Gagné\" class=\"style_gagne__Hm19Q\"></span><span title=\"Gagné\" class=\"style_gagne__Hm19Q\"></span><span title=\"Perdu\" class=\"style_perdu__ojgc2\"></span><span title=\"Perdu\" class=\"style_perdu__ojgc2\"></span><span title=\"Perdu\" class=\"style_perdu__ojgc2\"></span><i class=\"fi fi-rs-exclamation style_icon__Iu9v1\" title=\"Résultats des derniers matchs\"></i></span>"
    },
    {
        "position": "5",
        "club": "HBC 310 2",
        "points": "13",
        "joues": "7",
        "gagnes": "3",
        "nuls": "0",
        "perdus": "4",
        "buts_plus": "202",
        "buts_moins": "217",
        "diff_buts": "-15",
        "forme": "<span class=\"style_formesWrapper__eYuQj\"><span title=\"Perdu\" class=\"style_perdu__ojgc2\"></span><span title=\"Gagné\" class=\"style_gagne__Hm19Q\"></span><span title=\"Perdu\" class=\"style_perdu__ojgc2\"></span><span title=\"Gagné\" class=\"style_gagne__Hm19Q\"></span><span title=\"Gagné\" class=\"style_gagne__Hm19Q\"></span><i class=\"fi fi-rs-exclamation style_icon__Iu9v1\" title=\"Résultats des derniers matchs\"></i></span>"
    },
    {
        "position": "6",
        "club": "CADETS DE BRETAGNE 1",
        "points": "11",
        "joues": "7",
        "gagnes": "2",
        "nuls": "0",
        "perdus": "5",
        "buts_plus": "163",
        "buts_moins": "204",
        "diff_buts": "-41",
        "forme": "<span class=\"style_formesWrapper__eYuQj\"><span title=\"Perdu\" class=\"style_perdu__ojgc2\"></span><span title=\"Perdu\" class=\"style_perdu__ojgc2\"></span><span title=\"Gagné\" class=\"style_gagne__Hm19Q\"></span><span title=\"Gagné\" class=\"style_gagne__Hm19Q\"></span><span title=\"Perdu\" class=\"style_perdu__ojgc2\"></span><i class=\"fi fi-rs-exclamation style_icon__Iu9v1\" title=\"Résultats des derniers matchs\"></i></span>"
    },
    {
        "position": "7",
        "club": "COBSE HB 2",
        "points": "9",
        "joues": "7",
        "gagnes": "1",
        "nuls": "0",
        "perdus": "6",
        "buts_plus": "172",
        "buts_moins": "207",
        "diff_buts": "-35",
        "forme": "<span class=\"style_formesWrapper__eYuQj\"><span title=\"Perdu\" class=\"style_perdu__ojgc2\"></span><span title=\"Perdu\" class=\"style_perdu__ojgc2\"></span><span title=\"Perdu\" class=\"style_perdu__ojgc2\"></span><span title=\"Perdu\" class=\"style_perdu__ojgc2\"></span><span title=\"Perdu\" class=\"style_perdu__ojgc2\"></span><i class=\"fi fi-rs-exclamation style_icon__Iu9v1\" title=\"Résultats des derniers matchs\"></i></span>"
    },
    {
        "position": "8",
        "club": "U15M ENT RENNES MH-CHATEAUBOURG-CHATEAUGIRON",
        "points": "7",
        "joues": "7",
        "gagnes": "0",
        "nuls": "0",
        "perdus": "7",
        "buts_plus": "136",
        "buts_moins": "202",
        "diff_buts": "-66",
        "forme": "<span class=\"style_formesWrapper__eYuQj\"><span title=\"Perdu\" class=\"style_perdu__ojgc2\"></span><span title=\"Perdu\" class=\"style_perdu__ojgc2\"></span><span title=\"Perdu\" class=\"style_perdu__ojgc2\"></span><span title=\"Perdu\" class=\"style_perdu__ojgc2\"></span><span title=\"Perdu\" class=\"style_perdu__ojgc2\"></span><i class=\"fi fi-rs-exclamation style_icon__Iu9v1\" title=\"Résultats des derniers matchs\"></i></span>"
    }
]