[
    {
        "position": "1",
        "club": "CPB RENNES HB 1",
        "points": "15",
        "joues": "5",
        "gagnes": "5",
        "nuls": "0",
        "perdus": "0",
        "buts_plus": "162",
        "buts_moins": "82",
        "diff_buts": "80",
        "forme": "<span class=\"style_formesWrapper__eYuQj\"><span title=\"Gagné\" class=\"style_gagne__Hm19Q\"></span><span title=\"Gagné\" class=\"style_gagne__Hm19Q\"></span><span title=\"Gagné\" class=\"style_gagne__Hm19Q\"></span><span title=\"Gagné\" class=\"style_gagne__Hm19Q\"></span><span title=\"Gagné\" class=\"style_gagne__Hm19Q\"></span><i class=\"fi fi-rs-exclamation style_icon__Iu9v1\" title=\"Résultats des derniers matchs\"></i></span>"
    },
    {
        "position": "2",
        "club": "ASC MAURE HB 1",
        "points": "13",
        "joues": "5",
        "gagnes": "4",
        "nuls": "0",
        "perdus": "1",
        "buts_plus": "119",
        "buts_moins": "102",
        "diff_buts": "17",
        "forme": "<span class=\"style_formesWrapper__eYuQj\"><span title=\"Gagné\" class=\"style_gagne__Hm19Q\"></span><span title=\"Gagné\" class=\"style_gagne__Hm19Q\"></span><span title=\"Gagné\" class=\"style_gagne__Hm19Q\"></span><span title=\"Perdu\" class=\"style_perdu__ojgc2\"></span><span title=\"Gagné\" class=\"style_gagne__Hm19Q\"></span><i class=\"fi fi-rs-exclamation style_icon__Iu9v1\" title=\"Résultats des derniers matchs\"></i></span>"
    },
    {
        "position": "3",
        "club": "ES REDON",
        "points": "11",
        "joues": "5",
        "gagnes": "3",
        "nuls": "0",
        "perdus": "2",
        "buts_plus": "113",
        "buts_moins": "133",
        "diff_buts": "-20",
        "forme": "<span class=\"style_formesWrapper__eYuQj\"><span title=\"Gagné\" class=\"style_gagne__Hm19Q\"></span><span title=\"Perdu\" class=\"style_perdu__ojgc2\"></span><span title=\"Gagné\" class=\"style_gagne__Hm19Q\"></span><span title=\"Gagné\" class=\"style_gagne__Hm19Q\"></span><span title=\"Perdu\" class=\"style_perdu__ojgc2\"></span><i class=\"fi fi-rs-exclamation style_icon__Iu9v1\" title=\"Résultats des derniers matchs\"></i></span>"
    },
    {
        "position": "4",
        "club": "CO PACE HB 1",
        "points": "8",
        "joues": "5",
        "gagnes": "1",
        "nuls": "1",
        "perdus": "3",
        "buts_plus": "112",
        "buts_moins": "109",
        "diff_buts": "3",
        "forme": "<span class=\"style_formesWrapper__eYuQj\"><span title=\"Perdu\" class=\"style_perdu__ojgc2\"></span><span title=\"Nul\" class=\"style_nul__+euNY\"></span><span title=\"Perdu\" class=\"style_perdu__ojgc2\"></span><span title=\"Perdu\" class=\"style_perdu__ojgc2\"></span><span title=\"Gagné\" class=\"style_gagne__Hm19Q\"></span><i class=\"fi fi-rs-exclamation style_icon__Iu9v1\" title=\"Résultats des derniers matchs\"></i></span>"
    },
    {
        "position": "5",
        "club": "HBC 310 1",
        "points": "7",
        "joues": "5",
        "gagnes": "1",
        "nuls": "0",
        "perdus": "4",
        "buts_plus": "94",
        "buts_moins": "137",
        "diff_buts": "-43",
        "forme": "<span class=\"style_formesWrapper__eYuQj\"><span title=\"Perdu\" class=\"style_perdu__ojgc2\"></span><span title=\"Perdu\" class=\"style_perdu__ojgc2\"></span><span title=\"Perdu\" class=\"style_perdu__ojgc2\"></span><span title=\"Gagné\" class=\"style_gagne__Hm19Q\"></span><span title=\"Perdu\" class=\"style_perdu__ojgc2\"></span><i class=\"fi fi-rs-exclamation style_icon__Iu9v1\" title=\"Résultats des derniers matchs\"></i></span>"
    },
    {
        "position": "6",
        "club": "RETIERS PRAFPG HB 1",
        "points": "6",
        "joues": "5",
        "gagnes": "0",
        "nuls": "1",
        "perdus": "4",
        "buts_plus": "94",
        "buts_moins": "131",
        "diff_buts": "-37",
        "forme": "<span class=\"style_formesWrapper__eYuQj\"><span title=\"Perdu\" class=\"style_perdu__ojgc2\"></span><span title=\"Nul\" class=\"style_nul__+euNY\"></span><span title=\"Perdu\" class=\"style_perdu__ojgc2\"></span><span title=\"Perdu\" class=\"style_perdu__ojgc2\"></span><span title=\"Perdu\" class=\"style_perdu__ojgc2\"></span><i class=\"fi fi-rs-exclamation style_icon__Iu9v1\" title=\"Résultats des derniers matchs\"></i></span>"
    }
]