[
    {
        "date_text": "SAMEDI 16 NOVEMBRE 2024",
        "team1": "HBC 310",
        "team2": "CESSON RENNES METROPOLE HB 1",
        "week_number": 46,
        "competition_name": "U13 MASCULIN TERRITORIALE",
        "location": "HOME",
        "day_number": 1,
        "url": "https://www.ffhandball.fr/competitions/saison-2024-2025-20/regional/u13-masculin-territoriale-25566/poule-156174/rencontre-2267635/",
        "date": "2024-11-16",
        "time": "13H45",
        "day_of_week": "samedi",
        "score1": "16",
        "score2": "25",
        "gymnase": "NOUVELLE SALLE",
        "address": "rue de la costardais, 35310 BREAL SOUS MONTFORT"
    },
    {
        "date_text": "SAMEDI 23 NOVEMBRE 2024",
        "team1": "CESSON RENNES METROPOLE HB 2",
        "team2": "HBC 310",
        "week_number": 47,
        "competition_name": "U13 MASCULIN TERRITORIALE",
        "location": "AWAY",
        "day_number": 2,
        "url": "https://www.ffhandball.fr/competitions/saison-2024-2025-20/regional/u13-masculin-territoriale-25566/poule-156174/rencontre-2267640/",
        "date": "2024-11-23",
        "time": "13H15",
        "day_of_week": "samedi",
        "score1": "30",
        "score2": "25",
        "gymnase": "PALAIS DES SPORTS",
        "address": "ALLEE DE CHAMPAGNE, 35510 CESSON SEVIGNE"
    },
    {
        "date_text": "SAMEDI 7 DÉCEMBRE 2024",
        "team1": "HBC 310",
        "team2": "US LIFFRE 1",
        "week_number": 49,
        "competition_name": "U13 MASCULIN TERRITORIALE",
        "location": "HOME",
        "day_number": 3,
        "url": "https://www.ffhandball.fr/competitions/saison-2024-2025-20/regional/u13-masculin-territoriale-25566/poule-156174/rencontre-2267644/",
        "date": "2024-12-7",
        "time": "14H00",
        "day_of_week": "samedi",
        "score1": "23",
        "score2": "29",
        "gymnase": "NOUVELLE SALLE",
        "address": "rue de la costardais, 35310 BREAL SOUS MONTFORT"
    },
    {
        "date_text": "SAMEDI 14 DÉCEMBRE 2024",
        "team1": "CPB RENNES 1",
        "team2": "HBC 310",
        "week_number": 50,
        "competition_name": "U13 MASCULIN TERRITORIALE",
        "location": "AWAY",
        "day_number": 4,
        "url": "https://www.ffhandball.fr/competitions/saison-2024-2025-20/regional/u13-masculin-territoriale-25566/poule-156174/rencontre-2267647/",
        "date": "2024-12-14",
        "time": "14H45",
        "day_of_week": "samedi",
        "score1": "34",
        "score2": "33",
        "gymnase": "COMPLEXE SPORTIF CHARLES GENIAUX",
        "address": "3 RUE C GENIAUX, 35000 RENNES"
    },
    {
        "date_text": "SAMEDI 11 JANVIER 2025",
        "team1": "HBC 310",
        "team2": "AL CANCALE 1",
        "week_number": 2,
        "competition_name": "U13 MASCULIN TERRITORIALE",
        "location": "HOME",
        "day_number": 5,
        "url": "https://www.ffhandball.fr/competitions/saison-2024-2025-20/regional/u13-masculin-territoriale-25566/poule-156174/rencontre-2267650/",
        "date": "2025-01-11",
        "time": "11H30",
        "day_of_week": "samedi",
        "score1": "35",
        "score2": "38",
        "gymnase": "NOUVELLE SALLE",
        "address": "rue de la costardais, 35310 BREAL SOUS MONTFORT"
    },
    {
        "date_text": "DIMANCHE 19 JANVIER 2025",
        "team1": "HBC 310",
        "team2": "COBSE HB 1",
        "week_number": 3,
        "competition_name": "U13 MASCULIN TERRITORIALE",
        "location": "HOME",
        "day_number": 6,
        "url": "https://www.ffhandball.fr/competitions/saison-2024-2025-20/regional/u13-masculin-territoriale-25566/poule-156174/rencontre-2267653/",
        "date": "2025-01-19",
        "time": "11H00",
        "day_of_week": "dimanche",
        "score1": "25",
        "score2": "20",
        "gymnase": "NOUVELLE SALLE",
        "address": "rue de la costardais, 35310 BREAL SOUS MONTFORT"
    },
    {
        "date_text": "SAMEDI 1 FÉVRIER 2025",
        "team1": "HANDBALL BEAUSSAIS RANCE FREMUR",
        "team2": "HBC 310",
        "week_number": 5,
        "competition_name": "U13 MASCULIN TERRITORIALE",
        "location": "AWAY",
        "day_number": 7,
        "url": "https://www.ffhandball.fr/competitions/saison-2024-2025-20/regional/u13-masculin-territoriale-25566/poule-156174/rencontre-2267658/",
        "date": "2025-02-1",
        "time": "16H45",
        "day_of_week": "samedi",
        "score1": "26",
        "score2": "19",
        "gymnase": "SOS PLESLIN TRIGAVOU",
        "address": "SALLE OMNISPORTS, 22490 PLESLIN TRIGAVOU"
    },
    {
        "date_text": "SAMEDI 1 MARS 2025",
        "team1": "CESSON RENNES METROPOLE HB 1",
        "team2": "HBC 310",
        "week_number": 9,
        "competition_name": "U13 MASCULIN TERRITORIALE",
        "location": "AWAY",
        "day_number": 8,
        "url": "https://www.ffhandball.fr/competitions/saison-2024-2025-20/regional/u13-masculin-territoriale-25566/poule-156174/rencontre-2267663/",
        "date": "2025-03-1",
        "time": "15H00",
        "day_of_week": "samedi",
        "score1": "-",
        "score2": "-",
        "gymnase": "PALAIS DES SPORTS",
        "address": "ALLEE DE CHAMPAGNE, 35510 CESSON SEVIGNE"
    },
    {
        "date_text": "SAMEDI 15 MARS 2025",
        "team1": "HBC 310",
        "team2": "CESSON RENNES METROPOLE HB 2",
        "week_number": 11,
        "competition_name": "U13 MASCULIN TERRITORIALE",
        "location": "HOME",
        "day_number": 9,
        "url": "https://www.ffhandball.fr/competitions/saison-2024-2025-20/regional/u13-masculin-territoriale-25566/poule-156174/rencontre-2267668/",
        "date": "2025-03-15",
        "time": "12H30",
        "day_of_week": "samedi",
        "score1": "-",
        "score2": "-",
        "gymnase": "NOUVELLE SALLE",
        "address": "rue de la costardais, 35310 BREAL SOUS MONTFORT"
    },
    {
        "date_text": "SAMEDI 22 MARS 2025",
        "team1": "US LIFFRE 1",
        "team2": "HBC 310",
        "week_number": 12,
        "competition_name": "U13 MASCULIN TERRITORIALE",
        "location": "AWAY",
        "day_number": 10,
        "url": "https://www.ffhandball.fr/competitions/saison-2024-2025-20/regional/u13-masculin-territoriale-25566/poule-156174/rencontre-2267672/",
        "date": "2025-03-22",
        "time": "17H30",
        "day_of_week": "samedi",
        "score1": "-",
        "score2": "-",
        "gymnase": "DOMINIQUE LEROUGE",
        "address": "avenue jules ferry, 35340 LIFFRE"
    },
    {
        "date_text": "SAMEDI 29 MARS 2025",
        "team1": "HBC 310",
        "team2": "CPB RENNES 1",
        "week_number": 13,
        "competition_name": "U13 MASCULIN TERRITORIALE",
        "location": "HOME",
        "day_number": 11,
        "url": "https://www.ffhandball.fr/competitions/saison-2024-2025-20/regional/u13-masculin-territoriale-25566/poule-156174/rencontre-2267675/",
        "date": "2025-03-29",
        "time": "13H30",
        "day_of_week": "samedi",
        "score1": "-",
        "score2": "-",
        "gymnase": "NOUVELLE SALLE",
        "address": "rue de la costardais, 35310 BREAL SOUS MONTFORT"
    },
    {
        "date_text": "26 AVRIL 2025 AU 27 AVRIL 2025",
        "team1": "AL CANCALE 1",
        "team2": "HBC 310",
        "week_number": "Inconnu",
        "competition_name": "U13 MASCULIN TERRITORIALE",
        "location": "AWAY",
        "day_number": 12,
        "url": "https://www.ffhandball.fr/competitions/saison-2024-2025-20/regional/u13-masculin-territoriale-25566/poule-156174/rencontre-2267678/",
        "date": "Inconnu",
        "time": "Inconnu",
        "score1": "-",
        "score2": "-"
    },
    {
        "date_text": "3 MAI 2025 AU 4 MAI 2025",
        "team1": "COBSE HB 1",
        "team2": "HBC 310",
        "week_number": "Inconnu",
        "competition_name": "U13 MASCULIN TERRITORIALE",
        "location": "AWAY",
        "day_number": 13,
        "url": "https://www.ffhandball.fr/competitions/saison-2024-2025-20/regional/u13-masculin-territoriale-25566/poule-156174/rencontre-2267681/",
        "date": "Inconnu",
        "time": "Inconnu",
        "score1": "-",
        "score2": "-"
    },
    {
        "date_text": "17 MAI 2025 AU 18 MAI 2025",
        "team1": "HBC 310",
        "team2": "HANDBALL BEAUSSAIS RANCE FREMUR",
        "week_number": "Inconnu",
        "competition_name": "U13 MASCULIN TERRITORIALE",
        "location": "HOME",
        "day_number": 14,
        "url": "https://www.ffhandball.fr/competitions/saison-2024-2025-20/regional/u13-masculin-territoriale-25566/poule-156174/rencontre-2267686/",
        "date": "Inconnu",
        "time": "Inconnu",
        "score1": "-",
        "score2": "-"
    }
]