[
    {
        "position": "1",
        "club": "ESP DE CHARTRES DE BRETAGNE HB 3",
        "points": "40",
        "joues": "14",
        "gagnes": "13",
        "nuls": "0",
        "perdus": "1",
        "buts_plus": "458",
        "buts_moins": "216",
        "diff_buts": "242",
        "forme": "<span class=\"style_formesWrapper__eYuQj\"><span title=\"Gagné\" class=\"style_gagne__Hm19Q\"></span><span title=\"Gagné\" class=\"style_gagne__Hm19Q\"></span><span title=\"Gagné\" class=\"style_gagne__Hm19Q\"></span><span title=\"Gagné\" class=\"style_gagne__Hm19Q\"></span><span title=\"Gagné\" class=\"style_gagne__Hm19Q\"></span><i class=\"fi fi-rs-exclamation style_icon__Iu9v1\" title=\"Résultats des derniers matchs\"></i></span>"
    },
    {
        "position": "2",
        "club": "HANDBALL CLUB 310",
        "points": "38",
        "joues": "14",
        "gagnes": "12",
        "nuls": "0",
        "perdus": "2",
        "buts_plus": "339",
        "buts_moins": "209",
        "diff_buts": "130",
        "forme": "<span class=\"style_formesWrapper__eYuQj\"><span title=\"Gagné\" class=\"style_gagne__Hm19Q\"></span><span title=\"Gagné\" class=\"style_gagne__Hm19Q\"></span><span title=\"Gagné\" class=\"style_gagne__Hm19Q\"></span><span title=\"Perdu\" class=\"style_perdu__ojgc2\"></span><span title=\"Gagné\" class=\"style_gagne__Hm19Q\"></span><i class=\"fi fi-rs-exclamation style_icon__Iu9v1\" title=\"Résultats des derniers matchs\"></i></span>"
    },
    {
        "position": "3",
        "club": "ASC RENNAIS 2",
        "points": "34",
        "joues": "14",
        "gagnes": "10",
        "nuls": "0",
        "perdus": "4",
        "buts_plus": "354",
        "buts_moins": "257",
        "diff_buts": "97",
        "forme": "<span class=\"style_formesWrapper__eYuQj\"><span title=\"Gagné\" class=\"style_gagne__Hm19Q\"></span><span title=\"Gagné\" class=\"style_gagne__Hm19Q\"></span><span title=\"Perdu\" class=\"style_perdu__ojgc2\"></span><span title=\"Gagné\" class=\"style_gagne__Hm19Q\"></span><span title=\"Gagné\" class=\"style_gagne__Hm19Q\"></span><i class=\"fi fi-rs-exclamation style_icon__Iu9v1\" title=\"Résultats des derniers matchs\"></i></span>"
    },
    {
        "position": "4",
        "club": "ASC MAURE DE BRETAGNE HANDBALL",
        "points": "27",
        "joues": "14",
        "gagnes": "6",
        "nuls": "1",
        "perdus": "7",
        "buts_plus": "331",
        "buts_moins": "342",
        "diff_buts": "-11",
        "forme": "<span class=\"style_formesWrapper__eYuQj\"><span title=\"Perdu\" class=\"style_perdu__ojgc2\"></span><span title=\"Perdu\" class=\"style_perdu__ojgc2\"></span><span title=\"Nul\" class=\"style_nul__+euNY\"></span><span title=\"Gagné\" class=\"style_gagne__Hm19Q\"></span><span title=\"Perdu\" class=\"style_perdu__ojgc2\"></span><i class=\"fi fi-rs-exclamation style_icon__Iu9v1\" title=\"Résultats des derniers matchs\"></i></span>"
    },
    {
        "position": "5",
        "club": "SC MEVENNAIS HANDBALL",
        "points": "26",
        "joues": "14",
        "gagnes": "6",
        "nuls": "0",
        "perdus": "8",
        "buts_plus": "314",
        "buts_moins": "321",
        "diff_buts": "-7",
        "forme": "<span class=\"style_formesWrapper__eYuQj\"><span title=\"Perdu\" class=\"style_perdu__ojgc2\"></span><span title=\"Gagné\" class=\"style_gagne__Hm19Q\"></span><span title=\"Gagné\" class=\"style_gagne__Hm19Q\"></span><span title=\"Perdu\" class=\"style_perdu__ojgc2\"></span><span title=\"Perdu\" class=\"style_perdu__ojgc2\"></span><i class=\"fi fi-rs-exclamation style_icon__Iu9v1\" title=\"Résultats des derniers matchs\"></i></span>"
    },
    {
        "position": "6",
        "club": "RGP +16F TER HBC ARLEQUIN - THORIGNE 2 (D2-P5)",
        "points": "24",
        "joues": "14",
        "gagnes": "5",
        "nuls": "0",
        "perdus": "9",
        "buts_plus": "226",
        "buts_moins": "304",
        "diff_buts": "-78",
        "forme": "<span class=\"style_formesWrapper__eYuQj\"><span title=\"Perdu\" class=\"style_perdu__ojgc2\"></span><span title=\"Perdu\" class=\"style_perdu__ojgc2\"></span><span title=\"Perdu\" class=\"style_perdu__ojgc2\"></span><span title=\"Perdu\" class=\"style_perdu__ojgc2\"></span><span title=\"Gagné\" class=\"style_gagne__Hm19Q\"></span><i class=\"fi fi-rs-exclamation style_icon__Iu9v1\" title=\"Résultats des derniers matchs\"></i></span>"
    },
    {
        "position": "7",
        "club": "CADETS DE BRETAGNE 1",
        "points": "20",
        "joues": "14",
        "gagnes": "3",
        "nuls": "0",
        "perdus": "11",
        "buts_plus": "194",
        "buts_moins": "380",
        "diff_buts": "-186",
        "forme": "<span class=\"style_formesWrapper__eYuQj\"><span title=\"Gagné\" class=\"style_gagne__Hm19Q\"></span><span title=\"Perdu\" class=\"style_perdu__ojgc2\"></span><span title=\"Perdu\" class=\"style_perdu__ojgc2\"></span><span title=\"Gagné\" class=\"style_gagne__Hm19Q\"></span><span title=\"Perdu\" class=\"style_perdu__ojgc2\"></span><i class=\"fi fi-rs-exclamation style_icon__Iu9v1\" title=\"Résultats des derniers matchs\"></i></span>"
    },
    {
        "position": "8",
        "club": "PORTES DE BRETAGNE HANDBALL",
        "points": "14",
        "joues": "14",
        "gagnes": "0",
        "nuls": "1",
        "perdus": "13",
        "buts_plus": "147",
        "buts_moins": "334",
        "diff_buts": "-187",
        "forme": "<span class=\"style_formesWrapper__eYuQj\"><span title=\"Perdu\" class=\"style_perdu__ojgc2\"></span><span title=\"Perdu\" class=\"style_perdu__ojgc2\"></span><span title=\"Nul\" class=\"style_nul__+euNY\"></span><span title=\"Perdu\" class=\"style_perdu__ojgc2\"></span><span title=\"Perdu\" class=\"style_perdu__ojgc2\"></span><i class=\"fi fi-rs-exclamation style_icon__Iu9v1\" title=\"Résultats des derniers matchs\"></i></span>"
    }
]