[
    {
        "position": "1",
        "club": "BROCELIHAND  15-2F",
        "points": "10",
        "joues": "4",
        "gagnes": "3",
        "nuls": "0",
        "perdus": "1",
        "buts_plus": "86",
        "buts_moins": "61",
        "diff_buts": "25",
        "forme": "<span class=\"style_formesWrapper__eYuQj\"><span title=\"Gagné\" class=\"style_gagne__Hm19Q\"></span><span title=\"Gagné\" class=\"style_gagne__Hm19Q\"></span><span title=\"Perdu\" class=\"style_perdu__ojgc2\"></span><span title=\"Gagné\" class=\"style_gagne__Hm19Q\"></span><i class=\"fi fi-rs-exclamation style_icon__Iu9v1\" title=\"Résultats des derniers matchs\"></i></span>"
    },
    {
        "position": "2",
        "club": "US BAIN DE BRETAGNE HANDBALL 1",
        "points": "10",
        "joues": "4",
        "gagnes": "3",
        "nuls": "0",
        "perdus": "1",
        "buts_plus": "97",
        "buts_moins": "78",
        "diff_buts": "19",
        "forme": "<span class=\"style_formesWrapper__eYuQj\"><span title=\"Gagné\" class=\"style_gagne__Hm19Q\"></span><span title=\"Perdu\" class=\"style_perdu__ojgc2\"></span><span title=\"Gagné\" class=\"style_gagne__Hm19Q\"></span><span title=\"Gagné\" class=\"style_gagne__Hm19Q\"></span><i class=\"fi fi-rs-exclamation style_icon__Iu9v1\" title=\"Résultats des derniers matchs\"></i></span>"
    },
    {
        "position": "3",
        "club": "RENNES MH-CHTBOURG-CHTGIRON 1",
        "points": "9",
        "joues": "4",
        "gagnes": "2",
        "nuls": "1",
        "perdus": "1",
        "buts_plus": "91",
        "buts_moins": "71",
        "diff_buts": "20",
        "forme": "<span class=\"style_formesWrapper__eYuQj\"><span title=\"Nul\" class=\"style_nul__+euNY\"></span><span title=\"Gagné\" class=\"style_gagne__Hm19Q\"></span><span title=\"Gagné\" class=\"style_gagne__Hm19Q\"></span><span title=\"Perdu\" class=\"style_perdu__ojgc2\"></span><i class=\"fi fi-rs-exclamation style_icon__Iu9v1\" title=\"Résultats des derniers matchs\"></i></span>"
    },
    {
        "position": "4",
        "club": "LA VITREENNE RETIERS HANDBALL 1",
        "points": "7",
        "joues": "4",
        "gagnes": "1",
        "nuls": "1",
        "perdus": "2",
        "buts_plus": "84",
        "buts_moins": "63",
        "diff_buts": "21",
        "forme": "<span class=\"style_formesWrapper__eYuQj\"><span title=\"Nul\" class=\"style_nul__+euNY\"></span><span title=\"Perdu\" class=\"style_perdu__ojgc2\"></span><span title=\"Gagné\" class=\"style_gagne__Hm19Q\"></span><span title=\"Perdu\" class=\"style_perdu__ojgc2\"></span><i class=\"fi fi-rs-exclamation style_icon__Iu9v1\" title=\"Résultats des derniers matchs\"></i></span>"
    },
    {
        "position": "5",
        "club": "HBC310-2",
        "points": "4",
        "joues": "4",
        "gagnes": "0",
        "nuls": "0",
        "perdus": "4",
        "buts_plus": "39",
        "buts_moins": "124",
        "diff_buts": "-85",
        "forme": "<span class=\"style_formesWrapper__eYuQj\"><span title=\"Perdu\" class=\"style_perdu__ojgc2\"></span><span title=\"Perdu\" class=\"style_perdu__ojgc2\"></span><span title=\"Perdu\" class=\"style_perdu__ojgc2\"></span><span title=\"Perdu\" class=\"style_perdu__ojgc2\"></span><i class=\"fi fi-rs-exclamation style_icon__Iu9v1\" title=\"Résultats des derniers matchs\"></i></span>"
    }
]